<svg width="14" height="22" viewBox="0 0 14 22" fill="none" xmlns="http://www.w3.org/2000/svg">
<path d="M12.5122 12.1948L13.2065 8.27131H8.86524V5.72522C8.86524 4.65182 9.47168 3.60552 11.416 3.60552H13.3896V0.265068C13.3896 0.265068 11.5986 0 9.88623 0C6.31104 0 3.97412 1.87919 3.97412 5.28104V8.27131H0V12.1948H3.97412V21.6797H8.86524V12.1948H12.5122Z" fill="#E6E6E6"/>
</svg>
