<svg width="22" height="22" viewBox="0 0 22 22" fill="none" xmlns="http://www.w3.org/2000/svg">
<path d="M10.946 5.33268C7.84058 5.33268 5.33569 7.83844 5.33569 10.945C5.33569 14.0516 7.84058 16.5573 10.946 16.5573C14.0515 16.5573 16.5564 14.0516 16.5564 10.945C16.5564 7.83844 14.0515 5.33268 10.946 5.33268ZM10.946 14.5937C8.93921 14.5937 7.29858 12.9574 7.29858 10.945C7.29858 8.93258 8.93433 7.29626 10.946 7.29626C12.9578 7.29626 14.5935 8.93258 14.5935 10.945C14.5935 12.9574 12.9529 14.5937 10.946 14.5937ZM18.0945 5.10311C18.0945 5.8309 17.5085 6.41216 16.7859 6.41216C16.0584 6.41216 15.4773 5.82602 15.4773 5.10311C15.4773 4.3802 16.0632 3.79406 16.7859 3.79406C17.5085 3.79406 18.0945 4.3802 18.0945 5.10311ZM21.8103 6.4317C21.7273 4.67815 21.3269 3.12488 20.0427 1.84513C18.7634 0.565384 17.2107 0.164853 15.4578 0.0769313C13.6511 -0.0256438 8.23608 -0.0256438 6.42944 0.0769313C4.6814 0.159968 3.12866 0.560499 1.84448 1.84024C0.560303 3.11999 0.164795 4.67327 0.0769043 6.42681C-0.0256348 8.23409 -0.0256348 13.651 0.0769043 15.4583C0.159912 17.2118 0.560303 18.7651 1.84448 20.0449C3.12866 21.3246 4.67651 21.7251 6.42944 21.8131C8.23608 21.9156 13.6511 21.9156 15.4578 21.8131C17.2107 21.73 18.7634 21.3295 20.0427 20.0449C21.322 18.7651 21.7224 17.2118 21.8103 15.4583C21.9128 13.651 21.9128 8.23897 21.8103 6.4317ZM19.4763 17.3975C19.0955 18.3548 18.3582 19.0924 17.3962 19.4783C15.9558 20.0498 12.5378 19.9179 10.946 19.9179C9.35425 19.9179 5.9314 20.0449 4.49585 19.4783C3.53882 19.0973 2.80151 18.3597 2.41577 17.3975C1.84448 15.9565 1.97632 12.5374 1.97632 10.945C1.97632 9.35265 1.84937 5.92859 2.41577 4.49254C2.79663 3.53518 3.53394 2.79761 4.49585 2.41173C5.93628 1.84024 9.35425 1.97213 10.946 1.97213C12.5378 1.97213 15.9607 1.84513 17.3962 2.41173C18.3533 2.79273 19.0906 3.53029 19.4763 4.49254C20.0476 5.93348 19.9158 9.35265 19.9158 10.945C19.9158 12.5374 20.0476 15.9614 19.4763 17.3975Z" fill="#E6E6E6"/>
</svg>
